%YAML 1.1
%TAG !u! tag:unity3d.com,2011:
--- !u!74 &7400000
AnimationClip:
  m_ObjectHideFlags: 0
  m_PrefabParentObject: {fileID: 0}
  m_PrefabInternal: {fileID: 0}
  m_Name: Graphic_play
  serializedVersion: 6
  m_Legacy: 0
  m_Compressed: 0
  m_UseHighQualityCurve: 1
  m_RotationCurves: []
  m_CompressedRotationCurves: []
  m_EulerCurves: []
  m_PositionCurves: []
  m_ScaleCurves: []
  m_FloatCurves: []
  m_PPtrCurves:
  - curve:
    - time: 0
      value: {fileID: 21300000, guid: 24d7afb58aec127498eb7dd7c5f11299, type: 3}
    - time: 0.05
      value: {fileID: 21300002, guid: 24d7afb58aec127498eb7dd7c5f11299, type: 3}
    - time: 0.1
      value: {fileID: 21300004, guid: 24d7afb58aec127498eb7dd7c5f11299, type: 3}
    - time: 0.13333334
      value: {fileID: 21300006, guid: 24d7afb58aec127498eb7dd7c5f11299, type: 3}
    - time: 0.18333334
      value: {fileID: 21300008, guid: 24d7afb58aec127498eb7dd7c5f11299, type: 3}
    - time: 0.23333333
      value: {fileID: 21300010, guid: 24d7afb58aec127498eb7dd7c5f11299, type: 3}
    - time: 0.28333333
      value: {fileID: 21300012, guid: 24d7afb58aec127498eb7dd7c5f11299, type: 3}
    - time: 0.33333334
      value: {fileID: 21300014, guid: 24d7afb58aec127498eb7dd7c5f11299, type: 3}
    - time: 0.36666667
      value: {fileID: 21300016, guid: 24d7afb58aec127498eb7dd7c5f11299, type: 3}
    - time: 0.41666666
      value: {fileID: 21300018, guid: 24d7afb58aec127498eb7dd7c5f11299, type: 3}
    - time: 0.46666667
      value: {fileID: 21300020, guid: 24d7afb58aec127498eb7dd7c5f11299, type: 3}
    - time: 0.51666665
      value: {fileID: 21300022, guid: 24d7afb58aec127498eb7dd7c5f11299, type: 3}
    - time: 0.55
      value: {fileID: 21300024, guid: 24d7afb58aec127498eb7dd7c5f11299, type: 3}
    - time: 0.6
      value: {fileID: 21300026, guid: 24d7afb58aec127498eb7dd7c5f11299, type: 3}
    - time: 0.65
      value: {fileID: 21300028, guid: 24d7afb58aec127498eb7dd7c5f11299, type: 3}
    - time: 0.7
      value: {fileID: 21300030, guid: 24d7afb58aec127498eb7dd7c5f11299, type: 3}
    - time: 0.75
      value: {fileID: 21300032, guid: 24d7afb58aec127498eb7dd7c5f11299, type: 3}
    - time: 0.78333336
      value: {fileID: 21300034, guid: 24d7afb58aec127498eb7dd7c5f11299, type: 3}
    - time: 0.8333333
      value: {fileID: 21300036, guid: 24d7afb58aec127498eb7dd7c5f11299, type: 3}
    - time: 0.8833333
      value: {fileID: 21300038, guid: 24d7afb58aec127498eb7dd7c5f11299, type: 3}
    - time: 0.93333334
      value: {fileID: 21300040, guid: 24d7afb58aec127498eb7dd7c5f11299, type: 3}
    - time: 0.98333335
      value: {fileID: 21300042, guid: 24d7afb58aec127498eb7dd7c5f11299, type: 3}
    - time: 1.0166667
      value: {fileID: 21300044, guid: 24d7afb58aec127498eb7dd7c5f11299, type: 3}
    - time: 1.0666667
      value: {fileID: 21300046, guid: 24d7afb58aec127498eb7dd7c5f11299, type: 3}
    - time: 1.1166667
      value: {fileID: 21300048, guid: 24d7afb58aec127498eb7dd7c5f11299, type: 3}
    - time: 1.1666666
      value: {fileID: 21300050, guid: 24d7afb58aec127498eb7dd7c5f11299, type: 3}
    - time: 1.2166667
      value: {fileID: 21300052, guid: 24d7afb58aec127498eb7dd7c5f11299, type: 3}
    - time: 1.25
      value: {fileID: 21300054, guid: 24d7afb58aec127498eb7dd7c5f11299, type: 3}
    - time: 1.3
      value: {fileID: 21300056, guid: 24d7afb58aec127498eb7dd7c5f11299, type: 3}
    - time: 1.35
      value: {fileID: 21300058, guid: 24d7afb58aec127498eb7dd7c5f11299, type: 3}
    - time: 1.4
      value: {fileID: 21300060, guid: 24d7afb58aec127498eb7dd7c5f11299, type: 3}
    - time: 1.45
      value: {fileID: 21300062, guid: 24d7afb58aec127498eb7dd7c5f11299, type: 3}
    - time: 1.4833333
      value: {fileID: 21300064, guid: 24d7afb58aec127498eb7dd7c5f11299, type: 3}
    - time: 1.5333333
      value: {fileID: 21300066, guid: 24d7afb58aec127498eb7dd7c5f11299, type: 3}
    - time: 1.5833334
      value: {fileID: 21300068, guid: 24d7afb58aec127498eb7dd7c5f11299, type: 3}
    - time: 1.6333333
      value: {fileID: 21300070, guid: 24d7afb58aec127498eb7dd7c5f11299, type: 3}
    - time: 1.6666666
      value: {fileID: 21300072, guid: 24d7afb58aec127498eb7dd7c5f11299, type: 3}
    - time: 1.7166667
      value: {fileID: 21300074, guid: 24d7afb58aec127498eb7dd7c5f11299, type: 3}
    - time: 1.7666667
      value: {fileID: 21300076, guid: 24d7afb58aec127498eb7dd7c5f11299, type: 3}
    - time: 1.8166667
      value: {fileID: 21300078, guid: 24d7afb58aec127498eb7dd7c5f11299, type: 3}
    - time: 1.8666667
      value: {fileID: 21300080, guid: 24d7afb58aec127498eb7dd7c5f11299, type: 3}
    - time: 1.9
      value: {fileID: 21300082, guid: 24d7afb58aec127498eb7dd7c5f11299, type: 3}
    - time: 1.95
      value: {fileID: 21300084, guid: 24d7afb58aec127498eb7dd7c5f11299, type: 3}
    - time: 2
      value: {fileID: 21300086, guid: 24d7afb58aec127498eb7dd7c5f11299, type: 3}
    attribute: m_Sprite
    path: 
    classID: 114
    script: {fileID: -765806418, guid: f70555f144d8491a825f0804e09c671c, type: 3}
  m_SampleRate: 60
  m_WrapMode: 0
  m_Bounds:
    m_Center: {x: 0, y: 0, z: 0}
    m_Extent: {x: 0, y: 0, z: 0}
  m_ClipBindingConstant:
    genericBindings:
    - serializedVersion: 2
      path: 0
      attribute: 2015549526
      script: {fileID: -765806418, guid: f70555f144d8491a825f0804e09c671c, type: 3}
      typeID: 114
      customType: 0
      isPPtrCurve: 1
    pptrCurveMapping:
    - {fileID: 21300000, guid: 24d7afb58aec127498eb7dd7c5f11299, type: 3}
    - {fileID: 21300002, guid: 24d7afb58aec127498eb7dd7c5f11299, type: 3}
    - {fileID: 21300004, guid: 24d7afb58aec127498eb7dd7c5f11299, type: 3}
    - {fileID: 21300006, guid: 24d7afb58aec127498eb7dd7c5f11299, type: 3}
    - {fileID: 21300008, guid: 24d7afb58aec127498eb7dd7c5f11299, type: 3}
    - {fileID: 21300010, guid: 24d7afb58aec127498eb7dd7c5f11299, type: 3}
    - {fileID: 21300012, guid: 24d7afb58aec127498eb7dd7c5f11299, type: 3}
    - {fileID: 21300014, guid: 24d7afb58aec127498eb7dd7c5f11299, type: 3}
    - {fileID: 21300016, guid: 24d7afb58aec127498eb7dd7c5f11299, type: 3}
    - {fileID: 21300018, guid: 24d7afb58aec127498eb7dd7c5f11299, type: 3}
    - {fileID: 21300020, guid: 24d7afb58aec127498eb7dd7c5f11299, type: 3}
    - {fileID: 21300022, guid: 24d7afb58aec127498eb7dd7c5f11299, type: 3}
    - {fileID: 21300024, guid: 24d7afb58aec127498eb7dd7c5f11299, type: 3}
    - {fileID: 21300026, guid: 24d7afb58aec127498eb7dd7c5f11299, type: 3}
    - {fileID: 21300028, guid: 24d7afb58aec127498eb7dd7c5f11299, type: 3}
    - {fileID: 21300030, guid: 24d7afb58aec127498eb7dd7c5f11299, type: 3}
    - {fileID: 21300032, guid: 24d7afb58aec127498eb7dd7c5f11299, type: 3}
    - {fileID: 21300034, guid: 24d7afb58aec127498eb7dd7c5f11299, type: 3}
    - {fileID: 21300036, guid: 24d7afb58aec127498eb7dd7c5f11299, type: 3}
    - {fileID: 21300038, guid: 24d7afb58aec127498eb7dd7c5f11299, type: 3}
    - {fileID: 21300040, guid: 24d7afb58aec127498eb7dd7c5f11299, type: 3}
    - {fileID: 21300042, guid: 24d7afb58aec127498eb7dd7c5f11299, type: 3}
    - {fileID: 21300044, guid: 24d7afb58aec127498eb7dd7c5f11299, type: 3}
    - {fileID: 21300046, guid: 24d7afb58aec127498eb7dd7c5f11299, type: 3}
    - {fileID: 21300048, guid: 24d7afb58aec127498eb7dd7c5f11299, type: 3}
    - {fileID: 21300050, guid: 24d7afb58aec127498eb7dd7c5f11299, type: 3}
    - {fileID: 21300052, guid: 24d7afb58aec127498eb7dd7c5f11299, type: 3}
    - {fileID: 21300054, guid: 24d7afb58aec127498eb7dd7c5f11299, type: 3}
    - {fileID: 21300056, guid: 24d7afb58aec127498eb7dd7c5f11299, type: 3}
    - {fileID: 21300058, guid: 24d7afb58aec127498eb7dd7c5f11299, type: 3}
    - {fileID: 21300060, guid: 24d7afb58aec127498eb7dd7c5f11299, type: 3}
    - {fileID: 21300062, guid: 24d7afb58aec127498eb7dd7c5f11299, type: 3}
    - {fileID: 21300064, guid: 24d7afb58aec127498eb7dd7c5f11299, type: 3}
    - {fileID: 21300066, guid: 24d7afb58aec127498eb7dd7c5f11299, type: 3}
    - {fileID: 21300068, guid: 24d7afb58aec127498eb7dd7c5f11299, type: 3}
    - {fileID: 21300070, guid: 24d7afb58aec127498eb7dd7c5f11299, type: 3}
    - {fileID: 21300072, guid: 24d7afb58aec127498eb7dd7c5f11299, type: 3}
    - {fileID: 21300074, guid: 24d7afb58aec127498eb7dd7c5f11299, type: 3}
    - {fileID: 21300076, guid: 24d7afb58aec127498eb7dd7c5f11299, type: 3}
    - {fileID: 21300078, guid: 24d7afb58aec127498eb7dd7c5f11299, type: 3}
    - {fileID: 21300080, guid: 24d7afb58aec127498eb7dd7c5f11299, type: 3}
    - {fileID: 21300082, guid: 24d7afb58aec127498eb7dd7c5f11299, type: 3}
    - {fileID: 21300084, guid: 24d7afb58aec127498eb7dd7c5f11299, type: 3}
    - {fileID: 21300086, guid: 24d7afb58aec127498eb7dd7c5f11299, type: 3}
  m_AnimationClipSettings:
    serializedVersion: 2
    m_AdditiveReferencePoseClip: {fileID: 0}
    m_AdditiveReferencePoseTime: 0
    m_StartTime: 0
    m_StopTime: 2.0166667
    m_OrientationOffsetY: 0
    m_Level: 0
    m_CycleOffset: 0
    m_HasAdditiveReferencePose: 0
    m_LoopTime: 0
    m_LoopBlend: 0
    m_LoopBlendOrientation: 0
    m_LoopBlendPositionY: 0
    m_LoopBlendPositionXZ: 0
    m_KeepOriginalOrientation: 0
    m_KeepOriginalPositionY: 1
    m_KeepOriginalPositionXZ: 0
    m_HeightFromFeet: 0
    m_Mirror: 0
  m_EditorCurves: []
  m_EulerEditorCurves: []
  m_HasGenericRootTransform: 0
  m_HasMotionFloatCurves: 0
  m_GenerateMotionCurves: 0
  m_Events: []
